…
Parquetのデータをクエリできるか確認する:

```bash
$ duckdb
v1.2.0 5f5512b827
Enter ".help" for usage hints.
Connected to a transient in-memory database.
Use ".open FILENAME" to reopen on a persistent database.
D SELECT * FROM parquet_scan("s3://duckdb-local/spam.parquet");

┌──────────────────────┬──────────────────────┬─────────────────┬───┬──────────────────────┬───────────────────┬─────────────────────┐
│    connection_id     │          id          │      label      │ … │        rtc_id        │   rtc_timestamp   │      rtc_type       │
│       varchar        │       varchar        │     varchar     │   │       varchar        │      double       │       varchar       │
├──────────────────────┼──────────────────────┼─────────────────┼───┼──────────────────────┼───────────────────┼─────────────────────┤
│ F6WJ4SY2HD63Z25XD3…  │ DE5MC2JG3H2PK667ZG…  │ WebRTC SFU Sora │ … │ AP                   │ 1726394702721.481 │ media-playout       │
│ F6WJ4SY2HD63Z25XD3…  │ DE5MC2JG3H2PK667ZG…  │ WebRTC SFU Sora │ … │ CF9A:6C:31:80:50:F…  │ 1726394702721.481 │ certificate         │
│ F6WJ4SY2HD63Z25XD3…  │ DE5MC2JG3H2PK667ZG…  │ WebRTC SFU Sora │ … │ CFAF:51:8E:09:37:2…  │ 1726394702721.481 │ certificate         │
│ F6WJ4SY2HD63Z25XD3…  │ DE5MC2JG3H2PK667ZG…  │ WebRTC SFU Sora │ … │ COTdata1_109_maxpl…  │ 1726394702721.481 │ codec               │
│ F6WJ4SY2HD63Z25XD3…  │ DE5MC2JG3H2PK667ZG…  │ WebRTC SFU Sora │ … │ COTdata1_120_profi…  │ 1726394702721.481 │ codec               │
│ F6WJ4SY2HD63Z25XD3…  │ DE5MC2JG3H2PK667ZG…  │ WebRTC SFU Sora │ … │ CP/NH8cQqe_eL6zYNON  │ 1726394702721.481 │ candidate-pair      │
│ F6WJ4SY2HD63Z25XD3…  │ DE5MC2JG3H2PK667ZG…  │ WebRTC SFU Sora │ … │ CP08b8N49i_eL6zYNON  │ 1726394702721.481 │ candidate-pair      │
│ F6WJ4SY2HD63Z25XD3…  │ DE5MC2JG3H2PK667ZG…  │ WebRTC SFU Sora │ … │ CPBDwwCTaU_eL6zYNON  │ 1726394702721.481 │ candidate-pair      │
│ F6WJ4SY2HD63Z25XD3…  │ DE5MC2JG3H2PK667ZG…  │ WebRTC SFU Sora │ … │ CPYLu975lS_eL6zYNON  │ 1726394702721.481 │ candidate-pair      │
│ F6WJ4SY2HD63Z25XD3…  │ DE5MC2JG3H2PK667ZG…  │ WebRTC SFU Sora │ … │ CPki/8xp1m_eL6zYNON  │ 1726394702721.481 │ candidate-pair      │
│ F6WJ4SY2HD63Z25XD3…  │ DE5MC2JG3H2PK667ZG…  │ WebRTC SFU Sora │ … │ CPki/8xp1m_eYTJlek6  │ 1726394702721.481 │ candidate-pair      │
│ F6WJ4SY2HD63Z25XD3…  │ DE5MC2JG3H2PK667ZG…  │ WebRTC SFU Sora │ … │ D5                   │ 1726394702721.481 │ data-channel        │
│ F6WJ4SY2HD63Z25XD3…  │ DE5MC2JG3H2PK667ZG…  │ WebRTC SFU Sora │ … │ D6                   │ 1726394702721.481 │ data-channel        │
│ F6WJ4SY2HD63Z25XD3…  │ DE5MC2JG3H2PK667ZG…  │ WebRTC SFU Sora │ … │ D7                   │ 1726394702721.481 │ data-channel        │
│ F6WJ4SY2HD63Z25XD3…  │ DE5MC2JG3H2PK667ZG…  │ WebRTC SFU Sora │ … │ D8                   │ 1726394702721.481 │ data-channel        │
│ F6WJ4SY2HD63Z25XD3…  │ DE5MC2JG3H2PK667ZG…  │ WebRTC SFU Sora │ … │ I/NH8cQqe            │ 1726394702721.481 │ local-candidate     │
│ F6WJ4SY2HD63Z25XD3…  │ DE5MC2JG3H2PK667ZG…  │ WebRTC SFU Sora │ … │ I08b8N49i            │ 1726394702721.481 │ local-candidate     │
│ F6WJ4SY2HD63Z25XD3…  │ DE5MC2JG3H2PK667ZG…  │ WebRTC SFU Sora │ … │ I4uDdiSuP            │ 1726394702721.481 │ local-candidate     │
│ F6WJ4SY2HD63Z25XD3…  │ DE5MC2JG3H2PK667ZG…  │ WebRTC SFU Sora │ … │ IBDwwCTaU            │ 1726394702721.481 │ local-candidate     │
│ F6WJ4SY2HD63Z25XD3…  │ DE5MC2JG3H2PK667ZG…  │ WebRTC SFU Sora │ … │ IT0OYEKLy            │ 1726394702721.481 │ local-candidate     │
│          ·           │          ·           │        ·        │ · │     ·                │         ·         │       ·             │
│          ·           │          ·           │        ·        │ · │     ·                │         ·         │       ·             │
│          ·           │          ·           │        ·        │ · │     ·                │         ·         │       ·             │
│ ZVWETDA641527D2A6T…  │ S31C88V2SX7M76DD6M…  │ WebRTC SFU Sora │ … │ CPp2HkMADY_vKxy9BYC  │ 1726403015487.149 │ candidate-pair      │
│ ZVWETDA641527D2A6T…  │ S31C88V2SX7M76DD6M…  │ WebRTC SFU Sora │ … │ D5                   │ 1726403015487.149 │ data-channel        │
│ ZVWETDA641527D2A6T…  │ S31C88V2SX7M76DD6M…  │ WebRTC SFU Sora │ … │ D6                   │ 1726403015487.149 │ data-channel        │
│ ZVWETDA641527D2A6T…  │ S31C88V2SX7M76DD6M…  │ WebRTC SFU Sora │ … │ D7                   │ 1726403015487.149 │ data-channel        │
│ ZVWETDA641527D2A6T…  │ S31C88V2SX7M76DD6M…  │ WebRTC SFU Sora │ … │ D8                   │ 1726403015487.149 │ data-channel        │
│ ZVWETDA641527D2A6T…  │ S31C88V2SX7M76DD6M…  │ WebRTC SFU Sora │ … │ ITdata1A2376627921   │ 1726403015487.149 │ inbound-rtp         │
│ ZVWETDA641527D2A6T…  │ S31C88V2SX7M76DD6M…  │ WebRTC SFU Sora │ … │ ITdata1A3686590866   │ 1726403015487.149 │ inbound-rtp         │
│ ZVWETDA641527D2A6T…  │ S31C88V2SX7M76DD6M…  │ WebRTC SFU Sora │ … │ ITdata1V3657862824   │ 1726403015487.149 │ inbound-rtp         │
│ ZVWETDA641527D2A6T…  │ S31C88V2SX7M76DD6M…  │ WebRTC SFU Sora │ … │ ITdata1V494618204    │ 1726403015487.149 │ inbound-rtp         │
│ ZVWETDA641527D2A6T…  │ S31C88V2SX7M76DD6M…  │ WebRTC SFU Sora │ … │ OTdata1A3589631305   │ 1726403015487.149 │ outbound-rtp        │
│ ZVWETDA641527D2A6T…  │ S31C88V2SX7M76DD6M…  │ WebRTC SFU Sora │ … │ OTdata1V886471106    │ 1726403015487.149 │ outbound-rtp        │
│ ZVWETDA641527D2A6T…  │ S31C88V2SX7M76DD6M…  │ WebRTC SFU Sora │ … │ RIA3589631305        │   1726403011612.0 │ remote-inbound-rtp  │
│ ZVWETDA641527D2A6T…  │ S31C88V2SX7M76DD6M…  │ WebRTC SFU Sora │ … │ RIV886471106         │   1726403014647.0 │ remote-inbound-rtp  │
│ ZVWETDA641527D2A6T…  │ S31C88V2SX7M76DD6M…  │ WebRTC SFU Sora │ … │ ROA2376627921        │   1726403013580.0 │ remote-outbound-rtp │
│ ZVWETDA641527D2A6T…  │ S31C88V2SX7M76DD6M…  │ WebRTC SFU Sora │ … │ ROA3686590866        │   1726403011612.0 │ remote-outbound-rtp │
│ ZVWETDA641527D2A6T…  │ S31C88V2SX7M76DD6M…  │ WebRTC SFU Sora │ … │ ROV3657862824        │   1726403015068.0 │ remote-outbound-rtp │
│ ZVWETDA641527D2A6T…  │ S31C88V2SX7M76DD6M…  │ WebRTC SFU Sora │ … │ ROV494618204         │   1726403014750.0 │ remote-outbound-rtp │
│ ZVWETDA641527D2A6T…  │ S31C88V2SX7M76DD6M…  │ WebRTC SFU Sora │ … │ SA3                  │ 1726403015487.149 │ media-source        │
│ ZVWETDA641527D2A6T…  │ S31C88V2SX7M76DD6M…  │ WebRTC SFU Sora │ … │ SV4                  │ 1726403015487.149 │ media-source        │
│ ZVWETDA641527D2A6T…  │ S31C88V2SX7M76DD6M…  │ WebRTC SFU Sora │ … │ Tdata1               │ 1726403015487.149 │ transport           │
├──────────────────────┴──────────────────────┴─────────────────┴───┴──────────────────────┴───────────────────┴─────────────────────┤
│ 83911 rows (40 shown)                                                                                         20 columns (6 shown) │
└────────────────────────────────────────────────────────────────────────────────────────────────────────────────────────────────────┘
```
…
